^C:\USERS\OLIJO\DESKTOP\HALFTONETEMPLATE\STDAFX.CPP
/c /ZI /nologo /W3 /WX- /Od /Oy- /D WIN32 /D _DEBUG /D _CONSOLE /D _MBCS /D _CRT_SECURE_NO_WARNINGS /Gm /EHsc /RTC1 /MTd /GS /fp:precise /Zc:wchar_t /Zc:forScope /Zc:inline /Yc"stdafx.h" /Fp"DEBUG\GRAPHICSTEMPLATE.PCH" /Fo"DEBUG\\" /Fd"DEBUG\VC140.PDB" /Gd /TP /analyze- C:\USERS\OLIJO\DESKTOP\HALFTONETEMPLATE\STDAFX.CPP
^C:\USERS\OLIJO\DESKTOP\HALFTONETEMPLATE\CRENDERCLASS.CPP
/c /ZI /nologo /W3 /WX- /Od /Oy- /D WIN32 /D _DEBUG /D _CONSOLE /D _MBCS /D _CRT_SECURE_NO_WARNINGS /Gm /EHsc /RTC1 /MTd /GS /fp:precise /Zc:wchar_t /Zc:forScope /Zc:inline /Yu"stdafx.h" /Fp"DEBUG\GRAPHICSTEMPLATE.PCH" /Fo"DEBUG\\" /Fd"DEBUG\VC140.PDB" /Gd /TP /analyze- C:\USERS\OLIJO\DESKTOP\HALFTONETEMPLATE\CRENDERCLASS.CPP
^C:\USERS\OLIJO\DESKTOP\HALFTONETEMPLATE\CSHADER.CPP
/c /ZI /nologo /W3 /WX- /Od /Oy- /D WIN32 /D _DEBUG /D _CONSOLE /D _MBCS /D _CRT_SECURE_NO_WARNINGS /Gm /EHsc /RTC1 /MTd /GS /fp:precise /Zc:wchar_t /Zc:forScope /Zc:inline /Yu"stdafx.h" /Fp"DEBUG\GRAPHICSTEMPLATE.PCH" /Fo"DEBUG\\" /Fd"DEBUG\VC140.PDB" /Gd /TP /analyze- C:\USERS\OLIJO\DESKTOP\HALFTONETEMPLATE\CSHADER.CPP
^C:\USERS\OLIJO\DESKTOP\HALFTONETEMPLATE\GRAPHICSTEMPLATE.CPP
/c /ZI /nologo /W3 /WX- /Od /Oy- /D WIN32 /D _DEBUG /D _CONSOLE /D _MBCS /D _CRT_SECURE_NO_WARNINGS /Gm /EHsc /RTC1 /MTd /GS /fp:precise /Zc:wchar_t /Zc:forScope /Zc:inline /Yu"stdafx.h" /Fp"DEBUG\GRAPHICSTEMPLATE.PCH" /Fo"DEBUG\\" /Fd"DEBUG\VC140.PDB" /Gd /TP /analyze- C:\USERS\OLIJO\DESKTOP\HALFTONETEMPLATE\GRAPHICSTEMPLATE.CPP
^C:\USERS\OLIJO\DESKTOP\HALFTONETEMPLATE\OBJ.CPP
/c /ZI /nologo /W3 /WX- /Od /Oy- /D WIN32 /D _DEBUG /D _CONSOLE /D _MBCS /D _CRT_SECURE_NO_WARNINGS /Gm /EHsc /RTC1 /MTd /GS /fp:precise /Zc:wchar_t /Zc:forScope /Zc:inline /Yu"stdafx.h" /Fp"DEBUG\GRAPHICSTEMPLATE.PCH" /Fo"DEBUG\\" /Fd"DEBUG\VC140.PDB" /Gd /TP /analyze- C:\USERS\OLIJO\DESKTOP\HALFTONETEMPLATE\OBJ.CPP
^C:\USERS\OLIJO\DESKTOP\HALFTONETEMPLATE\OBJNEWREADER.CPP
/c /ZI /nologo /W3 /WX- /Od /Oy- /D WIN32 /D _DEBUG /D _CONSOLE /D _MBCS /D _CRT_SECURE_NO_WARNINGS /Gm /EHsc /RTC1 /MTd /GS /fp:precise /Zc:wchar_t /Zc:forScope /Zc:inline /Yu"stdafx.h" /Fp"DEBUG\GRAPHICSTEMPLATE.PCH" /Fo"DEBUG\\" /Fd"DEBUG\VC140.PDB" /Gd /TP /analyze- C:\USERS\OLIJO\DESKTOP\HALFTONETEMPLATE\OBJNEWREADER.CPP
^C:\USERS\OLIJO\DESKTOP\HALFTONETEMPLATE\TEXTFILE.CPP
/c /ZI /nologo /W3 /WX- /Od /Oy- /D WIN32 /D _DEBUG /D _CONSOLE /D _MBCS /D _CRT_SECURE_NO_WARNINGS /Gm /EHsc /RTC1 /MTd /GS /fp:precise /Zc:wchar_t /Zc:forScope /Zc:inline /Yu"stdafx.h" /Fp"DEBUG\GRAPHICSTEMPLATE.PCH" /Fo"DEBUG\\" /Fd"DEBUG\VC140.PDB" /Gd /TP /analyze- C:\USERS\OLIJO\DESKTOP\HALFTONETEMPLATE\TEXTFILE.CPP
^D:\DOCUMENTS\_PORTFOLIO\ADVANCEDGRAPHICS - OJORDAN\HALFTONETEMPLATE\STDAFX.CPP
/c /ZI /nologo /W3 /WX- /Od /Oy- /D WIN32 /D _DEBUG /D _CONSOLE /D _MBCS /D _CRT_SECURE_NO_WARNINGS /Gm /EHsc /RTC1 /MTd /GS /fp:precise /Zc:wchar_t /Zc:forScope /Zc:inline /Yc"stdafx.h" /Fp"DEBUG\GRAPHICSTEMPLATE.PCH" /Fo"DEBUG\\" /Fd"DEBUG\VC140.PDB" /Gd /TP /analyze- D:\DOCUMENTS\_PORTFOLIO\ADVANCEDGRAPHICS - OJORDAN\HALFTONETEMPLATE\STDAFX.CPP
^D:\DOCUMENTS\_PORTFOLIO\ADVANCEDGRAPHICS - OJORDAN\HALFTONETEMPLATE\CRENDERCLASS.CPP
/c /ZI /nologo /W3 /WX- /Od /Oy- /D WIN32 /D _DEBUG /D _CONSOLE /D _MBCS /D _CRT_SECURE_NO_WARNINGS /Gm /EHsc /RTC1 /MTd /GS /fp:precise /Zc:wchar_t /Zc:forScope /Zc:inline /Yu"stdafx.h" /Fp"DEBUG\GRAPHICSTEMPLATE.PCH" /Fo"DEBUG\\" /Fd"DEBUG\VC140.PDB" /Gd /TP /analyze- D:\DOCUMENTS\_PORTFOLIO\ADVANCEDGRAPHICS - OJORDAN\HALFTONETEMPLATE\CRENDERCLASS.CPP
^D:\DOCUMENTS\_PORTFOLIO\ADVANCEDGRAPHICS - OJORDAN\HALFTONETEMPLATE\CSHADER.CPP
/c /ZI /nologo /W3 /WX- /Od /Oy- /D WIN32 /D _DEBUG /D _CONSOLE /D _MBCS /D _CRT_SECURE_NO_WARNINGS /Gm /EHsc /RTC1 /MTd /GS /fp:precise /Zc:wchar_t /Zc:forScope /Zc:inline /Yu"stdafx.h" /Fp"DEBUG\GRAPHICSTEMPLATE.PCH" /Fo"DEBUG\\" /Fd"DEBUG\VC140.PDB" /Gd /TP /analyze- D:\DOCUMENTS\_PORTFOLIO\ADVANCEDGRAPHICS - OJORDAN\HALFTONETEMPLATE\CSHADER.CPP
^D:\DOCUMENTS\_PORTFOLIO\ADVANCEDGRAPHICS - OJORDAN\HALFTONETEMPLATE\GRAPHICSTEMPLATE.CPP
/c /ZI /nologo /W3 /WX- /Od /Oy- /D WIN32 /D _DEBUG /D _CONSOLE /D _MBCS /D _CRT_SECURE_NO_WARNINGS /Gm /EHsc /RTC1 /MTd /GS /fp:precise /Zc:wchar_t /Zc:forScope /Zc:inline /Yu"stdafx.h" /Fp"DEBUG\GRAPHICSTEMPLATE.PCH" /Fo"DEBUG\\" /Fd"DEBUG\VC140.PDB" /Gd /TP /analyze- D:\DOCUMENTS\_PORTFOLIO\ADVANCEDGRAPHICS - OJORDAN\HALFTONETEMPLATE\GRAPHICSTEMPLATE.CPP
^D:\DOCUMENTS\_PORTFOLIO\ADVANCEDGRAPHICS - OJORDAN\HALFTONETEMPLATE\OBJ.CPP
/c /ZI /nologo /W3 /WX- /Od /Oy- /D WIN32 /D _DEBUG /D _CONSOLE /D _MBCS /D _CRT_SECURE_NO_WARNINGS /Gm /EHsc /RTC1 /MTd /GS /fp:precise /Zc:wchar_t /Zc:forScope /Zc:inline /Yu"stdafx.h" /Fp"DEBUG\GRAPHICSTEMPLATE.PCH" /Fo"DEBUG\\" /Fd"DEBUG\VC140.PDB" /Gd /TP /analyze- D:\DOCUMENTS\_PORTFOLIO\ADVANCEDGRAPHICS - OJORDAN\HALFTONETEMPLATE\OBJ.CPP
^D:\DOCUMENTS\_PORTFOLIO\ADVANCEDGRAPHICS - OJORDAN\HALFTONETEMPLATE\OBJNEWREADER.CPP
/c /ZI /nologo /W3 /WX- /Od /Oy- /D WIN32 /D _DEBUG /D _CONSOLE /D _MBCS /D _CRT_SECURE_NO_WARNINGS /Gm /EHsc /RTC1 /MTd /GS /fp:precise /Zc:wchar_t /Zc:forScope /Zc:inline /Yu"stdafx.h" /Fp"DEBUG\GRAPHICSTEMPLATE.PCH" /Fo"DEBUG\\" /Fd"DEBUG\VC140.PDB" /Gd /TP /analyze- D:\DOCUMENTS\_PORTFOLIO\ADVANCEDGRAPHICS - OJORDAN\HALFTONETEMPLATE\OBJNEWREADER.CPP
^D:\DOCUMENTS\_PORTFOLIO\ADVANCEDGRAPHICS - OJORDAN\HALFTONETEMPLATE\TEXTFILE.CPP
/c /ZI /nologo /W3 /WX- /Od /Oy- /D WIN32 /D _DEBUG /D _CONSOLE /D _MBCS /D _CRT_SECURE_NO_WARNINGS /Gm /EHsc /RTC1 /MTd /GS /fp:precise /Zc:wchar_t /Zc:forScope /Zc:inline /Yu"stdafx.h" /Fp"DEBUG\GRAPHICSTEMPLATE.PCH" /Fo"DEBUG\\" /Fd"DEBUG\VC140.PDB" /Gd /TP /analyze- D:\DOCUMENTS\_PORTFOLIO\ADVANCEDGRAPHICS - OJORDAN\HALFTONETEMPLATE\TEXTFILE.CPP
